ff|gg|hh
Uriah|Axel|Jermaine
Ira|Clarke|Gary
Vance|Alan|Kaseem
Blaze|Armando|Calvin
Bruno|Salvador|Kermit
Bert|Jackson|Jonas
Wade|Xavier|Russell
Bradley|Cairo|Reed
Melvin|Gage|Sebastian
Keegan|Clarke|Caesar
Jerome|Tiger|Garrison
Coby|Philip|Chaney
Hiram|Graiden|Hakeem
Aladdin|Daquan|Wayne
Quinlan|Zephania|Benjamin
Judah|Colin|Jesse
Silas|Avram|Lance
Sawyer|Xenos|Orson
Mohammad|Stuart|Samuel
Rashad|Thaddeus|Mohammad
Len|Kasper|Dean
Joseph|Phillip|Warren
Lucas|Finn|Ryan
Amal|Kirk|Gregory
Ezra|Vaughan|Victor
Rashad|Hammett|Graham
Rajah|Beau|Dennis
Richard|Keaton|Reece
Keegan|Abraham|Owen
Caesar|Francis|Bradley
Nathaniel|Aristotle|Aristotle
Nasim|Lee|Lucius
Richard|Jeremy|Amir
Howard|Matthew|Matthew
Palmer|Colt|Uriel
Neil|Brendan|Akeem
Camden|Ulric|Baxter
David|Leonard|Kamal
Emmanuel|Brody|Matthew
Ignatius|Emmanuel|Nathaniel
Kieran|Kenneth|Chadwick
Yasir|Kareem|Connor
Nehru|Kennedy|Driscoll
Carl|Price|Palmer
Kermit|Hedley|Palmer
Armand|Basil|Beck
Raja|Raphael|Jamal
Deacon|Chancellor|Laith
Gabriel|Benjamin|Slade
Myles|Quinn|Sawyer
Lamar|Carlos|Tanek
Malik|Basil|George
Ignatius|Jamal|Thane
Wang|Cedric|Jerry
Felix|Mufutau|Timon
Curran|Drake|Clarke
Baxter|Malik|Calvin
Salvador|George|Ira
Cooper|Philip|Eric
Raphael|Zane|Lane
Cody|Cain|Gage
Jarrod|Chadwick|Burton
Abel|Upton|Nolan
Baxter|Carl|Tanek
Alvin|Cody|August
Deacon|Ross|Brandon
Ronan|Gray|Charles
Elijah|Rajah|Hamish
Mannix|Zahir|Hoyt
Lane|Trevor|Elijah
Timothy|Thomas|Erasmus
Ulysses|Matthew|Clarke
Herman|Carter|Neil
Barclay|Maxwell|Elmo
Tate|Gabriel|Macon
Gannon|Stuart|Stewart
Silas|Lance|Rooney
Kamal|Basil|Conan
Jonah|Addison|Ralph
Nehru|Zephania|Wallace
Gabriel|Slade|Jack
Macaulay|Bevis|Cullen
Kennan|Ulysses|Octavius
Kibo|Connor|Cooper
Chase|Colt|Orlando
Odysseus|George|Erasmus
Yoshio|Kenyon|Emery
Stuart|Prescott|Price
Asher|Quamar|Arthur
Phelan|Malcolm|Ronan
Chaney|Norman|Ahmed
Kibo|Caleb|Logan
Elliott|Owen|Ezra
Ralph|Arsenio|Keegan
Nicholas|Tucker|Chaney
Samson|Brent|Stewart
Cole|Hilel|Stephen
Tanek|Emerson|Bert
Xander|Lance|Reece
Price|Clayton|Andrew