ff|gg|hh
Daquan|Mufutau|Elton
Thane|Lane|Nolan
Caesar|Raja|Elliott
Carter|Levi|Ignatius
Neville|Troy|Erasmus
Rudyard|Kenyon|Devin
Hashim|Martin|Dorian
Francis|Uriah|Elliott
Nehru|Damon|Erich
Kelly|Donovan|Zahir
Lev|Nissim|Ahmed
Knox|Phelan|Igor
Ashton|Perry|Gavin
Seth|Brock|Leonard
Cooper|Aladdin|Hall
Wang|Yuli|Dante
Warren|Keith|Gary
Sylvester|Upton|Zachery
Howard|Lance|Edward
Jasper|Uriah|Erasmus
John|Prescott|Grant
Dominic|Darius|Dominic
Beau|Devin|Lev
Lionel|Emery|Acton
Curran|Duncan|Bert
Brendan|Brady|Carter
Erasmus|Devin|Shad
Buckminster|Brennan|Hu
Malik|Xavier|Basil
Elvis|Raymond|Isaac
Rogan|Ishmael|Chaney
Jesse|Paul|Ezra
Shad|Colton|Bernard
Eric|Ishmael|Raymond
Dean|Ciaran|Kasimir
Fletcher|Jared|Lance
Dexter|Kermit|Judah
Odysseus|Keith|Marsden
Burton|Hunter|Craig
Jacob|Hop|Gregory
Burke|Honorato|Porter
Orlando|Chadwick|Cruz
Drew|Buckminster|Bernard
Patrick|Wesley|Alec
Lyle|Kyle|Tanner
Ahmed|Kane|Ethan
Chandler|Cruz|Drake
Wyatt|Clinton|Andrew
Cameron|Jacob|Gil
Tiger|Deacon|Arthur
Logan|Kato|Magee
Walker|Gregory|Nehru
Arden|Ryan|Stephen
Hamish|Lester|Nathan
Kenyon|Wallace|Tanner
Macon|Gareth|Arden
Thor|Levi|Derek
Keegan|Hector|Roth
Kenyon|Carlos|Garrett
Hector|Aristotle|Lance
Jonah|Christian|Derek
Vladimir|Hilel|Vincent
Berk|Knox|Sylvester
Paul|Stone|Ralph
Dale|Chadwick|Austin
Kevin|Josiah|Bradley
Laith|Kevin|Tad
Murphy|Hyatt|Coby
Herrod|Guy|Garrett
Joel|Aristotle|Otto
Thaddeus|Xander|Lucius
Kuame|Gil|Erasmus
Bruce|Tanner|Francis
Ignatius|Clayton|Barrett
Colt|Cade|Kasimir
Jackson|Maxwell|Daquan
Joel|Nathaniel|Walter
Ralph|Channing|Shad
Dillon|Lucian|Damian
Gray|Gregory|Cruz
Julian|Xander|Aidan
Thomas|Nissim|Blake
Jerome|Alexander|Lyle
Valentine|Hayes|Hakeem
Fletcher|Thor|Judah
Wade|Dieter|Mark
Kenyon|Isaac|Stephen
Julian|Felix|Omar
Abbot|Burke|Keaton
Quamar|Ferdinand|Darius
Walter|Shad|Arden
Wesley|Yasir|Len
Ian|Lars|Baxter
Alec|Brody|Neville
Brandon|Jack|Kareem
Hunter|Philip|Gray
Oscar|Akeem|Jacob
Gil|Aquila|Kyle
Neville|Akeem|Nathaniel
Francis|Tad|Daquan