ff|gg|hh
Allen|Sylvester|Hop
Magee|Valentine|Nathan
Cedric|Zachary|Adrian
Ignatius|Hammett|David
Caldwell|Ezra|Bradley
Hayes|Ethan|Declan
Geoffrey|Oleg|Lee
Kato|Kenyon|Keegan
Dexter|Coby|Chester
Emmanuel|Caldwell|Branden
Sebastian|Herman|Neville
Conan|Robert|Marsden
Jelani|Samuel|Jarrod
Ronan|Emery|Elliott
Zephania|Brennan|Herman
Jonas|Dale|Tobias
Chaney|Valentine|Wylie
Jerry|Colorado|Omar
Derek|Dillon|Tarik
Xenos|Noah|Hilel
Channing|Tanek|Damon
Bruce|Oren|Cade
Grant|Edan|Lionel
Finn|Joshua|Fulton
Oren|Duncan|Lester
Travis|Samuel|Christian
Xander|Keegan|Alvin
Arthur|Calvin|Ryder
Thomas|Brock|Thane
Cairo|Lamar|Nolan
Rahim|Colt|John
Tate|Moses|Hall
Driscoll|Wyatt|Alec
Walker|Kibo|Eagan
Preston|Wayne|Arsenio
Merrill|Bradley|Magee
Valentine|Nero|Addison
Wang|Edward|Lucius
Jarrod|Francis|Derek
Nathaniel|Joshua|Zachary
Len|Bruce|Lamar
Justin|Kenneth|Jerry
Leroy|Cody|Basil
Malcolm|Jakeem|Ezekiel
Jared|Carl|Galvin
Jason|Forrest|Uriel
Paul|Yuli|Branden
Quinlan|Ashton|Salvador
Yardley|James|Macon
Kevin|Aquila|Lucius
Branden|Calvin|Herman
Jesse|Yardley|Malcolm
Ross|Stewart|Timothy
Howard|Cadman|Graham
Herman|Levi|Wade
Fitzgerald|Amir|Oren
Jacob|Thane|Michael
Vaughan|Neville|Louis
Callum|Salvador|Xenos
Carl|Cade|Oren
Colorado|Burton|Abraham
Daniel|Kareem|Orson
Acton|Rajah|Kato
Damon|Lester|Lucian
Oren|Avram|Ashton
Carson|Cole|Ross
Noah|Jamal|Xanthus
Mufutau|Nero|Kyle
Christian|Keith|Dustin
Francis|Marsden|Berk
Cruz|Scott|Brian
Hayes|Ignatius|Jordan
Alan|Price|Nehru
Keaton|Bernard|Drake
Nasim|Herrod|Hammett
Rahim|Flynn|Chester
Lucius|Lucius|Richard
Dalton|Hammett|Buckminster
Leroy|Kennedy|Noble
Davis|Dennis|Fuller
Cullen|Kane|Uriah
Reuben|Nicholas|Thaddeus
Hakeem|Rashad|Avram
Nissim|Lev|Armando
Kenyon|Lester|Jackson
Benedict|Nissim|Cole
Arsenio|Asher|Curran
Gil|Chaim|Gabriel
Sean|Reuben|Carl
Asher|Raphael|Burton
Jamal|Kyle|Melvin
Clayton|Wayne|Kennedy
Samuel|Fletcher|Samson
Carlos|Moses|Tad
Dieter|Jerome|Callum
Steven|Charles|Igor
Keith|Knox|Driscoll
Omar|Stewart|Ulysses
Ahmed|Salvador|Lawrence
Plato|Isaiah|Lucius