ff|gg|hh
Bradley|Fuller|Octavius
Dexter|Anthony|Rogan
Eric|Chadwick|Adrian
Valentine|Herrod|Ulric
Brendan|Lucian|Ali
Kelly|Hamish|Levi
Kermit|Arsenio|Brandon
Emerson|Brendan|Ferris
Conan|Laith|Philip
Ashton|Hayden|Francis
Ishmael|Malcolm|Philip
Burke|Ira|Jonah
Gavin|Vladimir|Thor
Caesar|Harlan|Cain
Brady|Talon|Stuart
Nolan|Hayes|Tyrone
Fitzgerald|Rashad|Hall
Avram|Reuben|Xanthus
Noah|Duncan|Kelly
Ulysses|Nissim|Melvin
Acton|Noah|Hu
Zeph|Nathaniel|Elvis
Warren|Cody|Harlan
Walter|Samson|Anthony
Tad|Justin|Caleb
Dante|Evan|Arsenio
Zachary|Jasper|Steven
Cruz|Cooper|Dalton
Ronan|Hop|Grady
Philip|Cedric|Brady
Hoyt|Keith|Murphy
Norman|Blake|Elvis
Isaiah|Gregory|Asher
Hayden|James|Hayden
Nigel|Erich|Bruce
Louis|Coby|Rahim
Vernon|Marvin|Francis
Oliver|Emery|Noah
Benedict|Herman|Travis
Zeus|Tarik|Harrison
Rajah|Hu|Calvin
Denton|Jasper|Gary
Norman|Mark|Tad
Murphy|Wade|Hayes
Ulric|Dylan|Dorian
Noble|Fritz|Malachi
Galvin|Jermaine|Amos
Carl|Edward|Damian
Griffin|Arden|Otto
Harper|Rahim|Palmer
Robert|Darius|Cullen
Uriah|Bruno|Griffin
Darius|Brock|Murphy
Wang|Malik|Jerome
Ross|Harrison|Joshua
Seth|Ryan|Justin
Brody|Alan|Barrett
Xenos|Benjamin|Griffin
Louis|Forrest|Kane
Dane|Mohammad|Hedley
Valentine|Nathaniel|Rigel
Levi|Curran|Malik
Donovan|Thor|Lawrence
Lewis|Sean|Driscoll
Lyle|Abdul|Charles
Nigel|Amos|Lance
Brenden|Arthur|Merrill
Bradley|Jasper|Marvin
Nigel|Curran|Fuller
Timon|Hu|Joseph
Berk|Harlan|Jakeem
Brian|Nathan|Nehru
Lester|Quinn|Yasir
Jesse|Orlando|Ferdinand
Jason|Tanner|Emmanuel
Asher|Lester|Bruno
Dillon|Callum|Leroy
Rudyard|Porter|Fuller
Kareem|Brian|Galvin
Erich|Wing|Ezekiel
Owen|Tanek|Brent
Russell|Zachery|Caldwell
Malachi|Carl|Abdul
Talon|Scott|Walter
Ferdinand|Justin|Dieter
Cairo|Cooper|Norman
Keith|Benjamin|Xenos
Jeremy|Hamish|Kuame
Scott|Emery|Caleb
Addison|Reuben|Clinton
Josiah|Rahim|Ronan
Nicholas|Jerry|Amal
Emmanuel|Lyle|Cadman
Kasper|Asher|Brian
Francis|Beau|Troy
Oren|Kennedy|Chaney
Cedric|Sylvester|Driscoll
Tyler|Davis|Daquan
Burton|Erich|Martin
Aquila|Phelan|Fritz