uuid|centerId|levelId|description
D15FDEF1-5D34-4FE6-B17F-E7F3067D2B97|6EB51B7A-A4C2-4600-8539-2AFACD2BE43A|100|Advance
5ACC1957-46F3-43E2-A994-A6127A79DDEE|6EB51B7A-A4C2-4600-8539-2AFACD2BE43A|200|O
